Veldig praktisk dataanalyse - 1 Lese inn datasett
…
1.1 Generelt om ulike dataformat

Data kan være lagret i mange ulike formater, og du vil kunne få data i et format som ikke er tilrettelagt verken i eller for R. Å gjøre om data fra et format til et annet kan være en avgjørende oppgave for å få gjort noe som helst. R kan imidlertid håndtere det aller meste av dataformater på en eller annen måte. Foreløpig skal vi kun se på et dataformat som er spesielt egnet for R, nemlig rds-formatet. Alle datasett som følger med denne boken vil være i rds-formatet, med unntak av kapittelet der temaet er import av andre formater.

1.2 Lese inn datasett og få oversikt

Vi bruker her et lite utvalg variable fra Ungdata 2010-2020 (NOVA and Bakken (2023)) som er lagret i rds-format. Dette datasettet er tilgjengelig på NSD sine sider. Følgende kode bruker funksjonen readRDS for å lese inn datasettet. Filbanen er angitt å ligge i en mappe som heter “data” i prosjektmappen, og filnavnet er “ungdata_alko.rds”. Når man leser inn dataene legges de i et “objekt” som vi her kaller ungdata_alko.

ungdata_alko <- readRDS("data/ungdata_alko.rds")

En første ting man bør sjekke er om dataene er lest inn riktig og at det rett og slett ser greit ut. Det er lite som kan gå galt når man leser inn en rds-fil, men det kan være en fordel for deg selv å se på dataene og se hvordan de ser ut. Vi kan se på objektet ungdata_alko ved å skrive navnet på objektet i konsollen. Da vil R i utgangspunktet skrive hele datasettet i konsollen.

ungdata_alko

# A tibble: 845,100 × 5
   klasse   ar    kjonn  alko1                         drikker
   <fct>    <fct> <fct>  <fct>                           <dbl>
 1 9. trinn 2014  Gutter Aldri                               0
 2 9. trinn 2014  Gutter Aldri                               0
 3 8. trinn 2014  Gutter Aldri                               0
 4 9. trinn 2014  Gutter Aldri                               0
 5 8. trinn 2014  Gutter Aldri                               0
 6 9. trinn 2014  Jenter Aldri                               0
 7 8. trinn 2014  Gutter Aldri                               0
 8 8. trinn 2014  Gutter Har bare smakt noen få ganger       1
 9 8. trinn 2014  Jenter Aldri                               0
10 9. trinn 2014  Jenter Har bare smakt noen få ganger       1
# ℹ 845,090 more rows
…
